module solo_stylist_serverless

go 1.18

require (
	github.com/aws/aws-lambda-go v1.34.1 // indirect
	github.com/aws/aws-sdk-go v1.44.99 // indirect
	github.com/jmespath/go-jmespath v0.4.0 // indirect
)
